…
``` r
ncol(instacart)
```

    ## [1] 15

``` r
#2:How many aisles are there, and which aisles are the most items ordered from?

instacart%>%
  count(aisle)
```

    ## # A tibble: 134 x 2
    ##    aisle                      n
    ##    <chr>                  <int>
    ##  1 air fresheners candles  1067
    ##  2 asian foods             7007
    ##  3 baby accessories         306
    ##  4 baby bath body care      328
    ##  5 baby food formula      13198
    ##  6 bakery desserts         1501
    ##  7 baking ingredients     13088
    ##  8 baking supplies decor   1094
    ##  9 beauty                   287
    ## 10 beers coolers           1839
    ## # … with 124 more rows

``` r
instacart %>%
  count(aisle, name = "aisle_count") %>% 
  arrange(desc(aisle_count))
```

    ## # A tibble: 134 x 2
    ##    aisle                         aisle_count
    ##    <chr>                               <int>
    ##  1 fresh vegetables                   150609
    ##  2 fresh fruits                       150473
    ##  3 packaged vegetables fruits          78493
    ##  4 yogurt                              55240
    ##  5 packaged cheese                     41699
    ##  6 water seltzer sparkling water       36617
    ##  7 milk                                32644
    ##  8 chips pretzels                      31269
    ##  9 soy lactosefree                     26240
    ## 10 bread                               23635
    ## # … with 124 more rows
…
``` r
#In 2002, which states were observed at 7 or more locations? What about in 2010?

brfss_smart2010%>%
  filter(year ==2002) %>% 
  count(state) %>% 
  filter(n >= 7)
```

    ## # A tibble: 36 x 2
    ##    state     n
    ##    <chr> <int>
    ##  1 AZ       10
    ##  2 CO       20
    ##  3 CT       35
    ##  4 DE       15
    ##  5 FL       35
    ##  6 GA       15
    ##  7 HI       20
    ##  8 ID       10
    ##  9 IL       15
    ## 10 IN       10
    ## # … with 26 more rows

``` r
brfss_smart2010%>%
  filter(year ==2010) %>% 
  count(state) %>% 
  filter(n >= 7)  
```

    ## # A tibble: 45 x 2
    ##    state     n
    ##    <chr> <int>
    ##  1 AL       15
    ##  2 AR       15
    ##  3 AZ       15
    ##  4 CA       60
    ##  5 CO       35
    ##  6 CT       25
    ##  7 DE       15
    ##  8 FL      205
    ##  9 GA       20
    ## 10 HI       20
    ## # … with 35 more rows
…
